_id: req_32f84bf6360144b08d737800e05bc763
type: Request
parentId: fld_a0d6d9a64118440b933ea824c1a959b4
modified: 1746122247151
created: 1746000918181
url: "{{ _.api }}/sertifikasi"
name: Data List
description: >-
  Example Response Success

  ```

  {
  	"status": true,
  	"data": {
  		"current_page": 1,
  		"data": [
  			{
  				"sertifikasi_id": 160,
  				"sertifikasi_reg_no": null,
  				"user_id": 2806,
  				"nib": "",
  				"nama_pu": "Bakso Telor",
  				"ktp": {},
  				"ktp_id": 28,
  				"phone": null,
  				"usaha_nama": "Bakso Condet",
  				"is_daging": 0,
  				"rph_name": "",
  				"pu_ktp_data": null,
  				"auditor_data": null,
  				"fatwa_id": null,
  				"step": 0,
  				"status": "pending",
  				"reject_reason": null,
  				"notifikasi": 0,
  				"accept_ratio": null,
  				"e_cert_file": null,
  				"created_at": "2025-04-12 16:35:10",
  				"updated_at": null,
  				"method": "token",
  				"status_teks": "Pengajuan anda sedang di review oleh sistem",
  				"created_at_f": "12\/04\/2025 16:35",
  				"status_f": "Menunggu"
  			}
  		],
  		"first_page_url": "https:\/\/app.goohalal.com\/v1\/vendor\/sertifikasi?page=1",
  		"from": 1,
  		"last_page": 4,
  		"last_page_url": "https:\/\/app.goohalal.com\/v1\/vendor\/sertifikasi?page=4",
  		"links": [
  			{
  				"url": null,
  				"label": "&laquo; Previous",
  				"active": false
  			},
  			{
  				"url": "https:\/\/app.goohalal.com\/v1\/vendor\/sertifikasi?page=1",
  				"label": "1",
  				"active": true
  			},
  			{
  				"url": "https:\/\/app.goohalal.com\/v1\/vendor\/sertifikasi?page=2",
  				"label": "Next &raquo;",
  				"active": false
  			}
  		],
  		"next_page_url": "https:\/\/app.goohalal.com\/v1\/vendor\/sertifikasi?page=2",
  		"path": "https:\/\/app.goohalal.com\/v1\/vendor\/sertifikasi",
  		"per_page": 10,
  		"prev_page_url": null,
  		"to": 10,
  		"total": 36
  	},
  	"message": [
  		"Berhasil"
  	]
  }

  ```
method: GET
body: {}
parameters: []
headers:
  - id: pair_7a80f2fbf14b4ad98072880049d4e09a
    name: gh-key
    value: "{{ _.gh_key }}"
    description: ""
authentication:
  type: bearer
  token: "{{ _.user }}"
metaSortKey: -1746000918181
isPrivate: false
settingStoreCookies: true
settingSendCookies: true
settingDisableRenderRequestBody: false
settingEncodeUrl: true
settingRebuildPath: true
settingFollowRedirects: global
