_id: req_c74705c13b82400e872757df60be0c20
type: Request
parentId: fld_ab98833bd0c746f48abd92cfef831390
modified: 1746021565803
created: 1746005143927
url: "{{ _.api }}/sertifikasi-fatwa"
name: List Data
description: >
  Example Response Success


  ```

  {
  	"status": true,
  	"data": {
  		"current_page": 1,
  		"data": [
  			{
  				"sertifikasi_id": 155,
  				"sertifikasi_reg_no": null,
  				"user_id": 2895,
  				"nib": "",
  				"nama_pu": "Tahu goreng",
  				"ktp": {},
  				"ktp_id": 36,
  				"phone": null,
  				"usaha_nama": "Cemilanku 2",
  				"is_daging": 0,
  				"rph_name": "",
  				"pu_ktp_data": null,
  				"fatwa_id": null,
  				"step": 0,
  				"status": "pending",
  				"reject_reason": null,
  				"notifikasi": 0,
  				"accept_ratio": null,
  				"e_cert_file": null,
  				"created_at": "2025-03-21 10:05:01",
  				"updated_at": null,
  				"method": "pay",
  				"status_teks": "Pengajuan anda sedang di review oleh sistem",
  				"created_at_f": "21\/03\/2025 10:05",
  				"status_f": "Menunggu"
  			}
  		],
  		"first_page_url": "https:\/\/app.goohalal.com\/v1\/vendor\/sertifikasi-fatwa?page=1",
  		"from": 1,
  		"last_page": 5,
  		"last_page_url": "https:\/\/app.goohalal.com\/v1\/vendor\/sertifikasi-fatwa?page=5",
  		"links": [
  			{
  				"url": null,
  				"label": "&laquo; Previous",
  				"active": false
  			},
  			{
  				"url": "https:\/\/app.goohalal.com\/v1\/vendor\/sertifikasi-fatwa?page=1",
  				"label": "1",
  				"active": true
  			},
  			{
  				"url": "https:\/\/app.goohalal.com\/v1\/vendor\/sertifikasi-fatwa?page=2",
  				"label": "2",
  				"active": false
  			},
  			{
  				"url": "https:\/\/app.goohalal.com\/v1\/vendor\/sertifikasi-fatwa?page=2",
  				"label": "Next &raquo;",
  				"active": false
  			}
  		],
  		"next_page_url": "https:\/\/app.goohalal.com\/v1\/vendor\/sertifikasi-fatwa?page=2",
  		"path": "https:\/\/app.goohalal.com\/v1\/vendor\/sertifikasi-fatwa",
  		"per_page": 10,
  		"prev_page_url": null,
  		"to": 10,
  		"total": 48
  	},
  	"message": [
  		"Berhasil"
  	]
  }

  ```
method: GET
body: {}
parameters: []
headers:
  - id: pair_7a80f2fbf14b4ad98072880049d4e09a
    name: gh-key
    value: "{{ _.gh_key }}"
    description: ""
authentication:
  type: bearer
  token: "{{ _.fatwa }}"
metaSortKey: -1746000918381
isPrivate: false
settingStoreCookies: true
settingSendCookies: true
settingDisableRenderRequestBody: false
settingEncodeUrl: true
settingRebuildPath: true
settingFollowRedirects: global
